{
    "builders": [
        {
            "type": "yandex",
            "service_account_key_file": "{{user `service_account_key_file`}}",
            "folder_id": "{{user `folder_id`}}",
            "source_image_family": "{{user `source_image_family`}}",
            "image_name": "docker-base-{{timestamp}}",
            "image_family": "docker",
            "ssh_username": "ubuntu",
            "platform_id": "standard-v1",
            "subnet_id": "{{user `subnet_id`}}",
            "use_ipv4_nat": true
        }
    ],
    "provisioners": [
        {
            "type": "ansible",
            "user": "ubuntu",
            "playbook_file": "../ansible/playbooks/docker.yml",
            "ansible_env_vars": [
                "ANSIBLE_REMOTE_TMP=/tmp/.ansible-ubuntu/tmp"
            ]
        }
    ]
}